;Austria;China;Germany;Nigeria;United States
1960;;;;;
1961;;;;8.695652174;8.194605795
1962;;;;10.93333333;8.9338278
1963;;;;8.683894231;9.317125566
1964;;;;19.10423002;9.031670204
1965;;;;8.751160631;8.621521073
1966;;;;10.94983991;4.719901488
1967;;;;-12.65871489;10.27751615
1968;;;;15;8.779049541
1969;;;;26.91055353;0.95834486
1970;;;;47.79655901;11.18506293
1971;;;;6.392321046;13.95525088
1972;;;;15.57731068;13.59039302
1973;;;;13.77678127;10.17597922
1974;;;;89.19786877;7.850727006
1975;;;;55.66314328;10.17843167
1976;;;;41.45126515;10.20830881
1977;;;;34.47272982;12.03486456
1978;;3.646318733;;-2.010344873;11.27100787
1979;;49.2413173;;30.95067145;9.792314098
1980;;25.85479741;;46.10815531;10.67932543
1981;;18.34719646;;5.899971508;12.06443469
1982;;14.56237043;;9.545308388;10.03220687
1983;;19.73341572;;14.02162518;8.27125759
1984;;32.64892362;;11.60279917;12.53332147
1985;;35.47033486;;8.992736328;8.293098837
1986;;30.2303637;;1.953094631;9.375452618
1987;;25.34102007;;22.41116364;4.064520291
1988;;20.66881142;;32.91319726;6.790980453
1989;;18.65216984;;12.92799525;5.317363403
1990;;28.86659469;;32.70102765;2.677963151
1991;;26.67910829;;37.3802139;1.500508222
1992;;30.79967095;;63.26025377;-0.153170227
1993;;46.66979073;;53.75796832;0.59642863
1994;;31.50013453;;34.49514215;0.404668959
1995;;29.4610222;;19.41171475;6.86921921
1996;;25.2731568;;16.17815859;7.865489455
1997;;20.72731167;;16.03900295;8.003497514
1998;;14.90435007;;22.31775759;9.601898069
1999;;14.66647771;;33.1210582;9.508532583
2000;8.474477088;12.32478198;3.582921857;48.06752269;8.110464485
2001;7.776339213;15.04241351;2.385129268;26.37680042;7.462693002
2002;2.488299922;13.14043628;3.144111117;18.82109827;4.396333369
2003;5.585910076;19.23976666;2.373728297;13.51136897;4.46629268
2004;6.876066029;14.88692014;3.763247358;20.67702554;5.720639279
2005;10.57520388;16.7416524;4.043715258;22.60363271;8.154553228
2006;8.654789367;22.11611885;4.083398788;36.35072099;9.0251608
2007;11.7425496;16.73553458;5.366164759;64.9246465;11.74445687
2008;12.39160394;17.77810755;4.709771052;58.53444666;8.190798129
2009;-0.032805635;28.42327787;-1.313144076;17.21457499;5.078623756
2010;-1.005831636;18.94831461;0.066674564;6.816272072;-2.741439069
2011;1.399538801;17.32296979;1.452436918;12.99923347;6.674682393
2012;-3.747286808;14.39165202;-0.879529585;16.78591526;4.985432649
2013;-1.39312421;13.58890221;-3.401410741;13.22354041;4.062488116
2014;;;;;
